{
  "type": "FeatureCollection",
  "features": [
    {
      "type": "Feature",
      "properties": {},
      "geometry": {
        "type": "LineString",
        "coordinates": [
          [
            -2.360687255859375,
            51.38292387723015
          ],
          [
            -2.5989532470703125,
            51.45315114582281
          ],
          [
            -2.50762939453125,
            51.53480425870272
          ]
        ]
      }
    }
  ]
}
